{
  "data": {
    "endRow": 20,
    "firstPage": 1,
    "hasNextPage": true,
    "hasPreviousPage": false,
    "isFirstPage": true,
    "isLastPage": false,
    "lastPage": 2,
    "list": [{
      "createTime": "2019-11-17 15:24:31",
      "cropId": 192,
      "cropName": "清心一号",
      "fieldName": "田块A",
      "id": 108,
      "images": [
        "img/process/1bd07dc5-3def-4e36-bb92-e0664f801d5d.jpg",
        "img/process/68675526-2828-4e59-8db7-29ece11a6ee5.jpg"],
      "inputRecord": "企业肥料",
      "location": "纬度：23.16；经度：113.35",
      "operation": "除草",
      "weather": "多云"
    }, {
      "createTime": "2019-11-17 15:21:35",
      "cropId": 192,
      "cropName": "清心一号",
      "fieldName": "田块A",
      "id": 107,
      "images": [
        "img/process/01f79e1a-16c3-4935-9296-40ec3c025009.jpg"],
      "inputRecord": "test",
      "location": "纬度：23.16；经度：113.35",
      "operation": "选种定植",
      "weather": "多云"
    }, {
      "createTime": "2019-11-17 15:18:13",
      "cropId": 192,
      "cropName": "清心一号",
      "fieldName": "田块A",
      "id": 106,
      "images": [
        "img/process/6cf19900-686c-4fb4-abbe-5ad21b24900c.jpg",
        "img/process/60e52f44-eb12-44d2-85bb-8728a6b20d85.jpg"],
      "inputRecord": "NESCAFE雀巢咖啡1+2原味即溶咖啡饮品",
      "location": "纬度：23.16；经度：113.35",
      "operation": "施肥",
      "weather": "多云"
    }, {
      "createTime": "2019-11-17 15:17:22",
      "cropId": 192,
      "cropName": "清心一号",
      "fieldName": "田块A",
      "id": 105,
      "images": [
        "img/process/36f6cfdd-4cc3-4481-958a-e6b79c840fdb.jpg"],
      "inputRecord": "NESCAFE雀巢咖啡1+2原味即溶咖啡饮品",
      "location": "纬度：23.16；经度：113.35",
      "operation": "施肥",
      "weather": "多云"
    }, {
      "createTime": "2019-11-17 14:59:29",
      "cropId": 192,
      "cropName": "清心一号",
      "fieldName": "田块A",
      "id": 104,
      "images": [
        "img/process/399680b0-bae2-4991-8b6f-33b950a76b23.jpg"],
      "inputRecord": "肥料",
      "location": "纬度：23.16；经度：113.35",
      "operation": "除草",
      "weather": "多云"
    }, {
      "createTime": "2019-11-17 14:56:45",
      "cropId": 192,
      "cropName": "清心一号",
      "fieldName": "田块A",
      "id": 103,
      "images": [
        "img/process/593bd086-a538-473b-a492-c19c327ad147.jpg"],
      "inputRecord": "肥料",
      "location": "纬度：23.16；经度：113.35",
      "operation": "水分管理,除草",
      "weather": "多云"
    }, {
      "createTime": "2019-11-17 11:36:05",
      "cropId": 192,
      "cropName": "清心一号",
      "fieldName": "田块A",
      "id": 102,
      "images": [
        "img/process/eb636dc2-4990-4563-9ee4-90755169a280.jpg"],
      "inputRecord": "企业肥料",
      "location": "纬度：23.16；经度：113.35",
      "operation": "水分管理",
      "weather": "多云"
    }, {
      "createTime": "2019-11-17 11:04:10",
      "cropId": 192,
      "cropName": "清心一号",
      "fieldName": "田块A",
      "id": 101,
      "images": [
        "img/process/3a66e695-8daf-4e02-b838-92a467eaaddf.jpg",
        "img/process/bc4ddd63-d4bc-4e57-9323-b9182539e1bf.jpg"],
      "inputRecord": "企业肥料",
      "location": "纬度：23.16；经度：113.35",
      "operation": "施肥",
      "weather": "多云"
    }, {
      "createTime": "2019-11-17 11:00:56",
      "cropId": 192,
      "cropName": "清心一号",
      "fieldName": "田块A",
      "id": 100,
      "images": [
        "img/process/41e4b4f9-8622-4019-ab1c-258432d887d8.jpg",
        "img/process/ec07cf13-bce9-4da8-929a-655e908c89df.jpg"],
      "inputRecord": "企业化合肥",
      "location": "纬度：23.16；经度：113.35",
      "operation": "水分管理,土壤管理",
      "weather": "多云"
    }, {
      "createTime": "2019-11-11 21:17:09",
      "cropId": 192,
      "cropName": "清心一号",
      "fieldName": "田块A",
      "id": 99,
      "images": [
        "img/process/5114ebc3-4538-4dd7-8e17-2d0a891e54f8.jpg",
        "img/process/82052823-db81-432a-ad79-1b045997681c.jpg"],
      "inputRecord": "企业肥料",
      "location": "纬度：23.16；经度：113.35",
      "operation": "选种定植,施肥,水分管理",
      "weather": "多云"
    }, {
      "createTime": "2019-11-06 14:58:04",
      "cropId": 192,
      "cropName": "清心一号",
      "fieldName": "田块A",
      "id": 98,
      "images": [
        "img/process/8d0807b2-626f-4317-aad9-de6fc3725072.jpg",
        "img/process/81e2f0ff-6636-48e7-914b-98cb5bd5b7f5.jpg",
        "img/process/b6d883d2-7d2a-45ce-9c83-20bf1aa0b38e.jpg"],
      "inputRecord": "企业肥料,企业肥料",
      "location": "纬度：23.16；经度：113.35",
      "operation": "选种定植,施肥",
      "weather": "多云"
    }, {
      "createTime": "2019-10-07 10:54:55",
      "cropId": 192,
      "cropName": "清心一号",
      "fieldName": "伊利牧场",
      "id": 97,
      "location": "纬度：23.16；经度：113.35",
      "operation": "采摘,修剪,选种定植",
      "weather": "多云"
    }, {
      "createTime": "2019-10-06 17:44:37",
      "cropId": 192,
      "cropName": "清心一号",
      "fieldName": "田块A",
      "id": 96,
      "location": "纬度：23.16；经度：113.35",
      "operation": "采摘,施肥,修剪",
      "remark": "",
      "weather": "多云"
    }, {
      "createTime": "2019-09-28 12:18:24",
      "cropId": 191,
      "cropName": "金萱",
      "fieldName": "伊利牧场",
      "id": 95,
      "location": "纬度：23.16；经度：113.35",
      "operation": "采摘",
      "remark": "",
      "weather": "多云"
    }, {
      "createTime": "2019-09-28 12:13:46",
      "cropId": 192,
      "cropName": "清心一号",
      "fieldName": "田块A",
      "id": 94,
      "location": "纬度：23.16；经度：113.35",
      "operation": "采摘",
      "weather": "多云"
    }, {
      "createTime": "2019-09-28 12:06:59",
      "cropId": 192,
      "cropName": "清心一号",
      "fieldName": "田块A",
      "id": 93,
      "location": "纬度：23.16；经度：113.35",
      "operation": "选种定植,施肥,水分管理",
      "weather": "多云"
    }, {
      "createTime": "2019-09-26 15:37:03",
      "cropId": 192,
      "cropName": "清心一号",
      "fieldName": "田块A",
      "id": 92,
      "images": [
        "img/process/76a780ce-ad34-4dc0-a48b-83002792e29a.jpg",
        "img/process/e72047f7-ec9c-4d17-a35d-66806ebdde5e.jpg"],
      "location": "纬度：23.16；经度：113.35",
      "operation": "防治病虫害,采摘",
      "weather": "多云"
    }, {
      "createTime": "2019-09-26 15:36:36",
      "cropId": 192,
      "cropName": "清心一号",
      "fieldName": "田块A",
      "id": 91,
      "images": [
        "img/process/a566ddbe-9fa8-4799-b6f3-6d51d0941e2c.jpg",
        "img/process/cb2b92f3-66c1-4677-b210-2582275af4a8.jpg"],
      "location": "纬度：23.16；经度：113.35",
      "operation": "选种定植,施肥,修剪",
      "remark": "灌溉",
      "weather": "多云"
    }, {
      "createTime": "2019-09-24 11:08:43",
      "cropId": 192,
      "cropName": "清心一号",
      "fieldName": "田块A",
      "id": 88,
      "images": [
        "img/process/00efe3bc-faec-4c4c-8b42-0234ea5779b0.jpg",
        "img/process/ec73d618-1d54-4c72-9a36-b0b76fd1e2b5.jpg"],
      "inputRecord": "企业化合肥",
      "location": "纬度：0.00；经度：0.00",
      "operation": "施肥,除草",
      "weather": "多云"
    }, {
      "createTime": "2019-09-24 10:59:16",
      "cropId": 192,
      "cropName": "清心一号",
      "fieldName": "田块A",
      "id": 87,
      "images": [
        "img/process/7a70befc-7b9b-49a8-bbfe-5cc7ef78b21f.jpg",
        "img/process/a975e23c-a70f-4016-90bf-8ef631ab9a87.jpg"],
      "location": "位置信息：纬度：23.16;经度：113.35",
      "operation": "施肥,水分管理",
      "weather": "多云"
    }],
    "navigateFirstPage": 1,
    "navigateLastPage": 2,
    "navigatePages": 8,
    "navigatepageNums": [1, 2],
    "nextPage": 2,
    "pageNum": 1,
    "pageSize": 20,
    "pages": 2,
    "prePage": 0,
    "size": 20,
    "startRow": 1,
    "total": 30
  },
  "status": 0,
  "success": true
}